{
"frames": {
	"Bomb_f01_24px.png": {
		"frame": {"x":0, "y":25, "w":24, "h":24},
		"spriteSourceSize": {"x":0,"y":0,"w":24,"h":24},
		"sourceSize": {"w":24,"h":24}
	},
	"Bomb_f02_24px.png": {
		"frame": {"x":0, "y":0, "w":24, "h":24},
		"spriteSourceSize": {"x":0,"y":0,"w":24,"h":24},
		"sourceSize": {"w":24,"h":24}
	},
	"Bomb_f03_24px.png": {
		"frame": {"x":25, "y":0, "w":24, "h":24},
		"spriteSourceSize": {"x":0,"y":0,"w":24,"h":24},
		"sourceSize": {"w":24,"h":24}
	}

},
"meta": {
	"image": "sprites.png",
	"size": {"w": 50, "h": 50},
	"scale": "1"
}
}