{
"frames": {
	"Enemy_01_Die.png": {
		"frame": {"x":33, "y":33, "w":28, "h":32},
		"spriteSourceSize": {"x":0,"y":0,"w":28,"h":32},
		"sourceSize": {"w":28,"h":32}
	},
	"Enemy_01_Move_1.png": {
		"frame": {"x":0, "y":33, "w":32, "h":28},
		"spriteSourceSize": {"x":0,"y":0,"w":32,"h":28},
		"sourceSize": {"w":32,"h":28}
	},
	"Enemy_01_Move_2.png": {
		"frame": {"x":33, "y":0, "w":30, "h":32},
		"spriteSourceSize": {"x":0,"y":0,"w":30,"h":32},
		"sourceSize": {"w":30,"h":32}
	},
	"Enemy_01_Move_3.png": {
		"frame": {"x":0, "y":0, "w":32, "h":32},
		"spriteSourceSize": {"x":0,"y":0,"w":32,"h":32},
		"sourceSize": {"w":32,"h":32}
	}

},
"meta": {
	"image": "sprites.png",
	"size": {"w": 64, "h": 66},
	"scale": "1"
}
}